\relax 
\providecommand\hyper@newdestlabel[2]{}
\providecommand\HyperFirstAtBeginDocument{\AtBeginDocument}
\HyperFirstAtBeginDocument{\ifx\hyper@anchor\@undefined
\global\let\oldcontentsline\contentsline
\gdef\contentsline#1#2#3#4{\oldcontentsline{#1}{#2}{#3}}
\global\let\oldnewlabel\newlabel
\gdef\newlabel#1#2{\newlabelxx{#1}#2}
\gdef\newlabelxx#1#2#3#4#5#6{\oldnewlabel{#1}{{#2}{#3}}}
\AtEndDocument{\ifx\hyper@anchor\@undefined
\let\contentsline\oldcontentsline
\let\newlabel\oldnewlabel
\fi}
\fi}
\global\let\hyper@last\relax 
\gdef\HyperFirstAtBeginDocument#1{#1}
\providecommand\HyField@AuxAddToFields[1]{}
\providecommand\HyField@AuxAddToCoFields[2]{}
\citation{rileyMathematicalMethodsPhysics2006}
\citation{bartelmannTheoretischePhysikMechanik2018}
\citation{sakuraiModernQuantumMechanics2020}
\citation{schererComputationalPhysicsSimulation2010,thijssenComputationalPhysics2007}
\citation{skuseThirdPillar2019}
\citation{schererComputationalPhysicsSimulation2010}
\citation{skuseThirdPillar2019}
\citation{thomasNumericalPartialDifferential1995}
\citation{batheFiniteElementMethod2008}
\citation{sircaComputationalMethodsPhysics2018}
\citation{bellmanDynamicProgramming1957}
\citation{courantPartialDifferenceEquations1967}
\citation{sircaComputationalMethodsPhysics2018}
\citation{raissiPhysicsInformedDeep2017a,raissiPhysicsInformedDeep2017,raissiPhysicsinformedNeuralNetworks2019,karniadakisPhysicsinformedMachineLearning2021}
\citation{goodfellowDeepLearning2016}
\citation{jumperHighlyAccurateProtein2021}
\citation{kirkpatrickPushingFrontiersDensity2021}
\citation{chenRiseDeepLearning2018}
\citation{razzakDeepLearningMedical2018}
\citation{raissiPhysicsInformedDeep2017a,raissiPhysicsInformedDeep2017}
\@writefile{toc}{\contentsline {chapter}{Introduction}{1}{chapter*.4}\protected@file@percent }
\citation{goodfellowDeepLearning2016}
\citation{karniadakisPhysicsinformedMachineLearning2021}
\citation{raissiPhysicsinformedNeuralNetworks2019}
\citation{karniadakisPhysicsinformedMachineLearning2021}
\citation{wangWhenWhyPINNs2022}
\citation{markidisOldNewCan2021}
\citation{markidisOldNewCan2021}
\citation{wangUnderstandingMitigatingGradient2021,wangWhenWhyPINNs2022,markidisOldNewCan2021,krishnapriyanCharacterizingPossibleFailure2021}
\citation{markidisOldNewCan2021}
\citation{luDeepXDEDeepLearning2021}
\citation{haghighatSciANNKerasTensorFlow2021}
\citation{karniadakisPhysicsinformedMachineLearning2021}
\citation{raissiPhysicsInformedDeep2017a}
\citation{chenPhysicsinformedNeuralNetworks2020}
\citation{huDeepLearningFramework2020}
\citation{limMaxwellNetPhysicsdrivenDeep2022}
\citation{eichlerLaserBauformenStrahlfuehrung2006}
\citation{andreoliMaximumRefractiveIndex2021}
\citation{hornikMultilayerFeedforwardNetworks1989}
\citation{maxwellVIIIDynamicalTheory1865}
\citation{huntOliverHeavisideFirstrate2012}
\citation{griffithsIntroductionElectrodynamics2017}
\citation{eichlerLaserBauformenStrahlfuehrung2006}
\@writefile{toc}{\contentsline {chapter}{\numberline {1}Wave optics}{5}{chapter.1}\protected@file@percent }
\@writefile{lof}{\addvspace {10\p@ }}
\@writefile{lot}{\addvspace {10\p@ }}
\newlabel{ch:optics}{{1}{5}{Wave optics}{chapter.1}{}}
\citation{griffithsIntroductionElectrodynamics2017}
\@writefile{toc}{\contentsline {section}{\numberline {1.1}From Maxwell's equations to Fresnel diffraction}{6}{section.1.1}\protected@file@percent }
\newlabel{sec:optics_in_vacuum}{{1.1}{6}{From Maxwell's equations to Fresnel diffraction}{section.1.1}{}}
\@writefile{toc}{\contentsline {subsection}{\numberline {1.1.1}Maxwell's equations in free space}{6}{subsection.1.1.1}\protected@file@percent }
\newlabel{eq:induction_vac}{{1.1}{6}{Maxwell's equations in free space}{equation.1.1.1}{}}
\newlabel{eq:ampere_vac}{{1.2}{6}{Maxwell's equations in free space}{equation.1.1.2}{}}
\newlabel{eq:gauss_vac}{{1.3}{6}{Maxwell's equations in free space}{equation.1.1.3}{}}
\newlabel{eq:noname_vac}{{1.4}{6}{Maxwell's equations in free space}{equation.1.1.4}{}}
\@writefile{toc}{\contentsline {subsection}{\numberline {1.1.2}The wave equation}{6}{subsection.1.1.2}\protected@file@percent }
\newlabel{eq:vector_id}{{1.8}{6}{The wave equation}{equation.1.1.8}{}}
\citation{salehFundamentalsPhotonics2007}
\citation{salehFundamentalsPhotonics2007}
\newlabel{eq:vectorwaveeq_vac}{{1.10}{7}{The wave equation}{equation.1.1.10}{}}
\newlabel{eq:scalarwaveeq_vac}{{1.11}{7}{The wave equation}{equation.1.1.11}{}}
\@writefile{toc}{\contentsline {subsection}{\numberline {1.1.3}The Helmholtz equation}{7}{subsection.1.1.3}\protected@file@percent }
\newlabel{eq:monochromaticu}{{1.12}{7}{The Helmholtz equation}{equation.1.1.12}{}}
\newlabel{eq:helmholtz_monochr_vac}{{1.13}{7}{The Helmholtz equation}{equation.1.1.13}{}}
\newlabel{eq:planewaves}{{1.14}{7}{The Helmholtz equation}{equation.1.1.14}{}}
\newlabel{eq:sphericalwaves}{{1.15}{7}{The Helmholtz equation}{equation.1.1.15}{}}
\citation{salehFundamentalsPhotonics2007}
\citation{salehFundamentalsPhotonics2007}
\citation{salehFundamentalsPhotonics2007}
\citation{salehFundamentalsPhotonics2007}
\@writefile{toc}{\contentsline {subsection}{\numberline {1.1.4}The paraxial Helmholtz equation}{8}{subsection.1.1.4}\protected@file@percent }
\newlabel{subsec:paraxialhelmholtzvac}{{1.1.4}{8}{The paraxial Helmholtz equation}{subsection.1.1.4}{}}
\newlabel{eq:paraboloidalwaves}{{1.18}{8}{The paraxial Helmholtz equation}{equation.1.1.18}{}}
\newlabel{eq:paraxialwaves}{{1.19}{8}{The paraxial Helmholtz equation}{equation.1.1.19}{}}
\newlabel{eq:paraxialhelmholtz_vac}{{1.21}{8}{The paraxial Helmholtz equation}{equation.1.1.21}{}}
\newlabel{eq:gaussianwaves}{{1.22}{8}{The paraxial Helmholtz equation}{equation.1.1.22}{}}
\citation{salehFundamentalsPhotonics2007}
\citation{salehFundamentalsPhotonics2007}
\citation{eichlerLaserBauformenStrahlfuehrung2006}
\citation{wegenerExtremeNonlinearOptics2010}
\newlabel{eq:beamwidth}{{1.25}{9}{The paraxial Helmholtz equation}{equation.1.1.25}{}}
\@writefile{toc}{\contentsline {section}{\numberline {1.2}Optical waveguides}{9}{section.1.2}\protected@file@percent }
\newlabel{sec:optics_in_waveguides}{{1.2}{9}{Optical waveguides}{section.1.2}{}}
\@writefile{toc}{\contentsline {subsection}{\numberline {1.2.1}The paraxial Helmholtz equation for a graded-index waveguide}{9}{subsection.1.2.1}\protected@file@percent }
\newlabel{eq:polarization}{{1.27}{9}{The paraxial Helmholtz equation for a graded-index waveguide}{equation.1.2.27}{}}
\citation{salehFundamentalsPhotonics2007}
\citation{salehFundamentalsPhotonics2007}
\citation{salehFundamentalsPhotonics2007}
\newlabel{eq:maxinh1}{{1.29}{10}{The paraxial Helmholtz equation for a graded-index waveguide}{equation.1.2.29}{}}
\newlabel{eq:maxinh2}{{1.30}{10}{The paraxial Helmholtz equation for a graded-index waveguide}{equation.1.2.30}{}}
\newlabel{eq:maxinh3}{{1.31}{10}{The paraxial Helmholtz equation for a graded-index waveguide}{equation.1.2.31}{}}
\newlabel{eq:helmholtz_n}{{1.35}{10}{The paraxial Helmholtz equation for a graded-index waveguide}{equation.1.2.35}{}}
\newlabel{eq:paraxialwaveeq_n}{{1.37}{11}{The paraxial Helmholtz equation for a graded-index waveguide}{equation.1.2.37}{}}
\@writefile{toc}{\contentsline {subsection}{\numberline {1.2.2}Parabolic waveguide in one dimension}{11}{subsection.1.2.2}\protected@file@percent }
\newlabel{subsec:parabolicwaveguide}{{1.2.2}{11}{Parabolic waveguide in one dimension}{subsection.1.2.2}{}}
\newlabel{eq:paraxialwaveeq_1d}{{1.40}{11}{Parabolic waveguide in one dimension}{equation.1.2.40}{}}
\newlabel{eq:eqforg}{{1.42}{11}{Parabolic waveguide in one dimension}{equation.1.2.42}{}}
\newlabel{eq:eqforp}{{1.43}{11}{Parabolic waveguide in one dimension}{equation.1.2.43}{}}
\citation{griffithsIntroductionQuantumMechanics2004}
\newlabel{eq:gaussianhermitesolution}{{1.45}{12}{Parabolic waveguide in one dimension}{equation.1.2.45}{}}
\newlabel{eq:gaussianhermitenormalization}{{1.46}{12}{Parabolic waveguide in one dimension}{equation.1.2.46}{}}
\newlabel{eq:hermiterecursion}{{1.47}{12}{Parabolic waveguide in one dimension}{equation.1.2.47}{}}
\newlabel{eq:eigenvalues}{{1.50}{12}{Parabolic waveguide in one dimension}{equation.1.2.50}{}}
\newlabel{eq:solutionwaveguide}{{1.53}{12}{Parabolic waveguide in one dimension}{equation.1.2.53}{}}
\citation{goodfellowDeepLearning2016}
\citation{raissiPhysicsinformedNeuralNetworks2019}
\citation{abadiTensorFlowSystemLargescale2016}
\citation{goodfellowDeepLearning2016}
\citation{cuomoScientificMachineLearning2022}
\@writefile{toc}{\contentsline {chapter}{\numberline {2}Neural networks}{13}{chapter.2}\protected@file@percent }
\@writefile{lof}{\addvspace {10\p@ }}
\@writefile{lot}{\addvspace {10\p@ }}
\newlabel{ch:nns}{{2}{13}{Neural networks}{chapter.2}{}}
\@writefile{toc}{\contentsline {section}{\numberline {2.1}What is a neural network?}{13}{section.2.1}\protected@file@percent }
\newlabel{sec:whatisnn}{{2.1}{13}{What is a neural network?}{section.2.1}{}}
\citation{goodfellowDeepLearning2016}
\citation{goodfellowDeepLearning2016}
\citation{guiReviewGenerativeAdversarial2021}
\citation{guiReviewGenerativeAdversarial2021}
\citation{disipioGenerativeAdversarialNetworkApproach2019}
\citation{yuReviewRecurrentNeural2019}
\citation{miljkovicBriefReviewSelforganizing2017}
\citation{ghosh-dastidarSpikingNeuralNetworks2009}
\citation{zhangOverviewRestrictedBoltzmann2018}
\citation{bernazzaniPredictingPhysicalChemical2006,melkoRestrictedBoltzmannMachines2019}
\@writefile{lof}{\contentsline {figure}{\numberline {2.1}{\ignorespaces \textit  {Left:} schematic illustration of a feedforward neural network with one input and one output node as well as two hidden layers with four nodes each. \textit  {Right:} illustration of the single node, which takes four inputs (corresponding to four incoming arrows) as a vector $x$ and through an activation function $\mathrm  {act}$ calculates an output $a$ with help of the weight vector $w$ and bias $b$. This output is then passed on as input to three other nodes (corresponding to four outgoing arrows). Further elaboration on these concepts can be found in Chapter\nobreakspace  {}\ref  {subsec:forwardprop}.\relax }}{14}{figure.caption.5}\protected@file@percent }
\providecommand*\caption@xref[2]{\@setref\relax\@undefined{#1}}
\newlabel{fig:ffnn}{{2.1}{14}{\textit {Left:} schematic illustration of a feedforward neural network with one input and one output node as well as two hidden layers with four nodes each. \textit {Right:} illustration of the single node, which takes four inputs (corresponding to four incoming arrows) as a vector $x$ and through an activation function $\mathrm {act}$ calculates an output $a$ with help of the weight vector $w$ and bias $b$. This output is then passed on as input to three other nodes (corresponding to four outgoing arrows). Further elaboration on these concepts can be found in Chapter~\ref {subsec:forwardprop}.\relax }{figure.caption.5}{}}
\newlabel{bx:NNtypes}{{2.1}{14}{What is a neural network?}{box.1}{}}
\@writefile{toc}{\contentsline {section}{\numberline {2.2}Mathematics of feedforward neural networks}{15}{section.2.2}\protected@file@percent }
\newlabel{sec:NNmath}{{2.2}{15}{Mathematics of feedforward neural networks}{section.2.2}{}}
\@writefile{toc}{\contentsline {subsection}{\numberline {2.2.1}Vocabulary and notation}{15}{subsection.2.2.1}\protected@file@percent }
\newlabel{subsec:notation}{{2.2.1}{15}{Vocabulary and notation}{subsection.2.2.1}{}}
\@writefile{toc}{\contentsline {paragraph}{Types of data}{15}{paragraph*.6}\protected@file@percent }
\@writefile{toc}{\contentsline {paragraph}{Input, output and hidden layers}{15}{paragraph*.7}\protected@file@percent }
\newlabel{eq:sinefct}{{2.1}{15}{Input, output and hidden layers}{equation.2.2.1}{}}
\@writefile{toc}{\contentsline {paragraph}{Weights and biases}{16}{paragraph*.8}\protected@file@percent }
\@writefile{toc}{\contentsline {paragraph}{Hyperparameters}{16}{paragraph*.9}\protected@file@percent }
\@writefile{toc}{\contentsline {subsection}{\numberline {2.2.2}Forward propagation}{16}{subsection.2.2.2}\protected@file@percent }
\newlabel{subsec:forwardprop}{{2.2.2}{16}{Forward propagation}{subsection.2.2.2}{}}
\newlabel{eq:forwardprop_z}{{2.2}{16}{Forward propagation}{equation.2.2.2}{}}
\newlabel{eq:forwardprop_a}{{2.3}{16}{Forward propagation}{equation.2.2.3}{}}
\citation{cuomoScientificMachineLearning2022}
\citation{cuomoScientificMachineLearning2022}
\citation{chengDeepLearningMethod2021}
\citation{goodfellowDeepLearning2016}
\citation{goodfellowDeepLearning2016}
\citation{cuomoScientificMachineLearning2022}
\citation{goodfellowDeepLearning2016}
\citation{cuomoScientificMachineLearning2022}
\citation{markidisOldNewCan2021}
\citation{goodfellowDeepLearning2016}
\@writefile{toc}{\contentsline {paragraph}{Activation function}{17}{paragraph*.10}\protected@file@percent }
\newlabel{bx:acttypes}{{2.2}{17}{Activation function}{box.2}{}}
\citation{goodfellowDeepLearning2016}
\citation{reedNeuralSmithingSupervised1999}
\citation{goodfellowDeepLearning2016}
\citation{kollmannsbergerPhysicsInformedNeuralNetworks2021,cuomoScientificMachineLearning2022}
\citation{boydConvexOptimization2004,rockafellarConvexAnalysis1997}
\@writefile{toc}{\contentsline {subsection}{\numberline {2.2.3}Backpropagation}{18}{subsection.2.2.3}\protected@file@percent }
\newlabel{subsec:backprop}{{2.2.3}{18}{Backpropagation}{subsection.2.2.3}{}}
\@writefile{toc}{\contentsline {paragraph}{Loss and cost function}{18}{paragraph*.11}\protected@file@percent }
\newlabel{eq:mse}{{2.7}{18}{Loss and cost function}{equation.2.2.7}{}}
\@writefile{toc}{\contentsline {paragraph}{Minimizing the cost function}{18}{paragraph*.12}\protected@file@percent }
\citation{goodfellowDeepLearning2016}
\citation{goodfellowQualitativelyCharacterizingNeural2015}
\citation{dauphinIdentifyingAttackingSaddle2014}
\citation{goodfellowQualitativelyCharacterizingNeural2015}
\citation{choromanskaLossSurfacesMultilayer2015}
\citation{markidisOldNewCan2021}
\citation{goriProblemLocalMinima1992}
\citation{goodfellowDeepLearning2016}
\@writefile{toc}{\contentsline {paragraph}{Gradient descent}{19}{paragraph*.13}\protected@file@percent }
\citation{baydinAutomaticDifferentiationMachine2018a}
\citation{goodfellowDeepLearning2016}
\citation{goodfellowDeepLearning2016}
\@writefile{toc}{\contentsline {paragraph}{Derivative of the cost function}{20}{paragraph*.14}\protected@file@percent }
\newlabel{eq:chainrulevector}{{2.11}{20}{Derivative of the cost function}{equation.2.2.11}{}}
\citation{baydinAutomaticDifferentiationMachine2018a}
\citation{raissiPhysicsinformedNeuralNetworks2019}
\citation{goodfellowDeepLearning2016}
\citation{goodfellowDeepLearning2016}
\citation{goodfellowDeepLearning2016}
\@writefile{toc}{\contentsline {subsection}{\numberline {2.2.4}Stochastic gradient descent}{21}{subsection.2.2.4}\protected@file@percent }
\citation{ruderOverviewGradientDescent2017}
\citation{zeilerADADELTAAdaptiveLearning2012}
\citation{kingmaAdamMethodStochastic2015}
\citation{goodfellowDeepLearning2016}
\citation{raissiPhysicsinformedNeuralNetworks2019,markidisOldNewCan2021}
\citation{liuLimitedMemoryBFGS1989}
\citation{zhuAlgorithm778LBFGSB1997}
\citation{goodfellowDeepLearning2016}
\newlabel{bx:modernopt}{{2.3}{22}{Stochastic gradient descent}{box.3}{}}
\@writefile{toc}{\contentsline {paragraph}{First-order methods}{22}{paragraph*.15}\protected@file@percent }
\@writefile{toc}{\contentsline {paragraph}{Second-order methods}{22}{paragraph*.16}\protected@file@percent }
\citation{gemanNeuralNetworksBias1992}
\citation{wilsonGeneralInefficiencyBatch2003}
\citation{karniadakisPhysicsinformedMachineLearning2021}
\citation{goodfellowDeepLearning2016}
\@writefile{toc}{\contentsline {subsection}{\numberline {2.2.5}Overfitting}{23}{subsection.2.2.5}\protected@file@percent }
\newlabel{subsec:overfitting}{{2.2.5}{23}{Overfitting}{subsection.2.2.5}{}}
\@writefile{lof}{\contentsline {figure}{\numberline {2.2}{\ignorespaces Illustration of overfitting. In red, data points are generated by a cubic function and slightly shifted by random noise. In blue, a polynomial regression is performed, one linear (left, underfit), one cubic (middle, reasonable) and one of $9^\text  {th}$ order (right, overfit). Obviously, overfitting in neural networks is usually not such a ``clear-cut case'' like this.\relax }}{23}{figure.caption.17}\protected@file@percent }
\newlabel{fig:overfit}{{2.2}{23}{Illustration of overfitting. In red, data points are generated by a cubic function and slightly shifted by random noise. In blue, a polynomial regression is performed, one linear (left, underfit), one cubic (middle, reasonable) and one of $9^\text {th}$ order (right, overfit). Obviously, overfitting in neural networks is usually not such a ``clear-cut case'' like this.\relax }{figure.caption.17}{}}
\newlabel{bx:regularization}{{2.4}{23}{Overfitting}{box.4}{}}
\citation{hornikMultilayerFeedforwardNetworks1989}
\@writefile{toc}{\contentsline {section}{\numberline {2.3}Implementation of a deep neural network as a function approximator}{24}{section.2.3}\protected@file@percent }
\newlabel{sec:functionapprox}{{2.3}{24}{Implementation of a deep neural network as a function approximator}{section.2.3}{}}
\citation{glorotUnderstandingDifficultyTraining2010}
\@writefile{toc}{\contentsline {paragraph}{Defining the problem}{25}{paragraph*.18}\protected@file@percent }
\newlabel{eq:sine}{{2.13}{25}{Defining the problem}{equation.2.3.13}{}}
\newlabel{eq:poisson1d}{{2.14}{25}{Defining the problem}{equation.2.3.14}{}}
\@writefile{toc}{\contentsline {paragraph}{Implementation}{25}{paragraph*.19}\protected@file@percent }
\@writefile{toc}{\contentsline {paragraph}{Results}{27}{paragraph*.20}\protected@file@percent }
\@writefile{lof}{\contentsline {figure}{\numberline {2.3}{\ignorespaces Development of the cost throughout the training process. Note the spikes in the cost -- this is due to the stochastic nature of the Adam optimizer.\relax }}{27}{figure.caption.21}\protected@file@percent }
\newlabel{fig:poisson_loss}{{2.3}{27}{Development of the cost throughout the training process. Note the spikes in the cost -- this is due to the stochastic nature of the Adam optimizer.\relax }{figure.caption.21}{}}
\@writefile{lof}{\contentsline {figure}{\numberline {2.4}{\ignorespaces Results of the neural network tracked over $100$, $200$, $300$ and $967$ training cycles, where the training data (blue, circles), exact solution (red, dotted) and the model's prediction (blue, solid) are compared.\relax }}{27}{figure.caption.22}\protected@file@percent }
\newlabel{fig:poisson_u}{{2.4}{27}{Results of the neural network tracked over $100$, $200$, $300$ and $967$ training cycles, where the training data (blue, circles), exact solution (red, dotted) and the model's prediction (blue, solid) are compared.\relax }{figure.caption.22}{}}
\citation{leeNeuralAlgorithmSolving1990,lagarisArtificialNeuralNetworks1998}
\citation{lagarisArtificialNeuralNetworks1998}
\citation{baydinAutomaticDifferentiationMachine2018a}
\citation{lagarisArtificialNeuralNetworks1998}
\citation{lagarisArtificialNeuralNetworks1998}
\@writefile{toc}{\contentsline {chapter}{\numberline {3}Physics-informed neural networks}{29}{chapter.3}\protected@file@percent }
\@writefile{lof}{\addvspace {10\p@ }}
\@writefile{lot}{\addvspace {10\p@ }}
\newlabel{ch:pinns}{{3}{29}{Physics-informed neural networks}{chapter.3}{}}
\@writefile{toc}{\contentsline {section}{\numberline {3.1}Idea and mathematics of PINNs}{29}{section.3.1}\protected@file@percent }
\newlabel{sec:ideapinns}{{3.1}{29}{Idea and mathematics of PINNs}{section.3.1}{}}
\newlabel{eq:standardpde}{{3.1}{29}{Idea and mathematics of PINNs}{equation.3.1.1}{}}
\newlabel{eq:minimizeresid}{{3.2}{29}{Idea and mathematics of PINNs}{equation.3.1.2}{}}
\citation{karniadakisPhysicsinformedMachineLearning2021}
\@writefile{lof}{\contentsline {figure}{\numberline {3.1}{\ignorespaces Illustration of a physics-informed neural network for a 1D Poisson equation. A feed-forward neural network provides a prediction $u$ for a given number $x$. Through automatic differentiation, the derivatives are determined and the residual of the Poisson equation calculated. Put together with boundary data and -- if available -- external data for $u$, the loss is then calculated. Through an optimization technique (e.g. stochastic gradient descent), the weights are adjusted so that the loss, after a certain number of iterations, becomes minimal.\relax }}{30}{figure.caption.23}\protected@file@percent }
\newlabel{fig:illustrationpinn}{{3.1}{30}{Illustration of a physics-informed neural network for a 1D Poisson equation. A feed-forward neural network provides a prediction $u$ for a given number $x$. Through automatic differentiation, the derivatives are determined and the residual of the Poisson equation calculated. Put together with boundary data and -- if available -- external data for $u$, the loss is then calculated. Through an optimization technique (e.g. stochastic gradient descent), the weights are adjusted so that the loss, after a certain number of iterations, becomes minimal.\relax }{figure.caption.23}{}}
\@writefile{toc}{\contentsline {paragraph}{Notation}{30}{paragraph*.24}\protected@file@percent }
\newlabel{eq:residual}{{3.3}{30}{Notation}{equation.3.1.3}{}}
\citation{raissiPhysicsinformedNeuralNetworks2019}
\citation{bochevLeastSquaresFiniteElement2009}
\citation{nabianDeepLearningSolution2019}
\citation{wangUnderstandingMitigatingGradient2021}
\@writefile{toc}{\contentsline {paragraph}{Cost function}{31}{paragraph*.25}\protected@file@percent }
\newlabel{eq:pinncost}{{3.4}{31}{Cost function}{equation.3.1.4}{}}
\newlabel{eq:msebound}{{3.7}{31}{Cost function}{equation.3.1.7}{}}
\@writefile{toc}{\contentsline {section}{\numberline {3.2}Implementation of a simple PINN}{32}{section.3.2}\protected@file@percent }
\newlabel{sec:pinnpoisson}{{3.2}{32}{Implementation of a simple PINN}{section.3.2}{}}
\newlabel{eq:poisson1dpinn}{{3.11}{32}{Implementation of a simple PINN}{equation.3.2.11}{}}
\@writefile{toc}{\contentsline {paragraph}{Results}{33}{paragraph*.26}\protected@file@percent }
\@writefile{lof}{\contentsline {figure}{\numberline {3.2}{\ignorespaces Development of the total cost and its components (cost of the training set, $\mathrm  {MSE}_\mathrm  {data}$, residual cost, $\mathrm  {MSE}_f$, and boundary cost, $\mathrm  {MSE}_b$) throughout the training process of the PINN. Confirming intution, $\mathrm  {MSE}_b$ displays the most erratic behavious since with only two datapoints it is most sensitive to fluctuations.\relax }}{34}{figure.caption.27}\protected@file@percent }
\newlabel{fig:pinnpoisson_cost}{{3.2}{34}{Development of the total cost and its components (cost of the training set, $\mathrm {MSE}_\mathrm {data}$, residual cost, $\mathrm {MSE}_f$, and boundary cost, $\mathrm {MSE}_b$) throughout the training process of the PINN. Confirming intution, $\mathrm {MSE}_b$ displays the most erratic behavious since with only two datapoints it is most sensitive to fluctuations.\relax }{figure.caption.27}{}}
\@writefile{lof}{\contentsline {figure}{\numberline {3.3}{\ignorespaces Results of the PINN tracked over $200$, $500$, $1000$ and $2147$ training cycles, where the training data (blue, circles), exact solution (red, dotted) and the model's prediction (blue, solid) are compared. \relax }}{34}{figure.caption.28}\protected@file@percent }
\newlabel{fig:pinnpoisson_u}{{3.3}{34}{Results of the PINN tracked over $200$, $500$, $1000$ and $2147$ training cycles, where the training data (blue, circles), exact solution (red, dotted) and the model's prediction (blue, solid) are compared. \relax }{figure.caption.28}{}}
\@writefile{lof}{\contentsline {figure}{\numberline {3.4}{\ignorespaces Comparison of the total cost and the relative $\L _2$ error during the training process.\relax }}{35}{figure.caption.29}\protected@file@percent }
\newlabel{fig:pinnpoisson_l2_and_cost}{{3.4}{35}{Comparison of the total cost and the relative $\L _2$ error during the training process.\relax }{figure.caption.29}{}}
\citation{karniadakisPhysicsinformedMachineLearning2021}
\citation{blechschmidtThreeWaysSolve2021}
\citation{cuomoScientificMachineLearning2022}
\citation{shinConvergencePhysicsInformed2020}
\citation{nabianDeepLearningSolution2019}
\citation{wangUnderstandingMitigatingGradient2021}
\citation{markidisOldNewCan2021}
\citation{markidisOldNewCan2021}
\citation{cuomoScientificMachineLearning2022}
\citation{blechschmidtThreeWaysSolve2021}
\citation{wangUnderstandingMitigatingGradient2021}
\citation{raissiPhysicsinformedNeuralNetworks2019,markidisOldNewCan2021}
\citation{cuomoScientificMachineLearning2022}
\citation{markidisOldNewCan2021}
\citation{kollmannsbergerPhysicsInformedNeuralNetworks2021}
\citation{sunSurrogateModelingFluid2020}
\citation{markidisOldNewCan2021}
\citation{glorotUnderstandingDifficultyTraining2010}
\@writefile{toc}{\contentsline {section}{\numberline {3.3}Modern developments}{36}{section.3.3}\protected@file@percent }
\newlabel{sec:moderndev}{{3.3}{36}{Modern developments}{section.3.3}{}}
\@writefile{toc}{\contentsline {subsection}{\numberline {3.3.1}Hyperparameters}{36}{subsection.3.3.1}\protected@file@percent }
\newlabel{subsec:hyperparameters}{{3.3.1}{36}{Hyperparameters}{subsection.3.3.1}{}}
\@writefile{toc}{\contentsline {subsection}{\numberline {3.3.2}Convergence properties}{36}{subsection.3.3.2}\protected@file@percent }
\newlabel{subsec:convergence}{{3.3.2}{36}{Convergence properties}{subsection.3.3.2}{}}
\@writefile{toc}{\contentsline {paragraph}{Adaptively choosing weights of loss components}{36}{paragraph*.30}\protected@file@percent }
\citation{zhuangComprehensiveSurveyTransfer2021}
\citation{markidisOldNewCan2021}
\citation{krishnapriyanCharacterizingPossibleFailure2021}
\citation{wangSurveyCurriculumLearning2021,krishnapriyanCharacterizingPossibleFailure2021}
\@writefile{lot}{\contentsline {table}{\numberline {3.1}{\ignorespaces Impact of hyperparameters on the performance of PINNs. Note that the definition of hyperparameter for this table can be reduced to ``anything which is pre-determined by the user'' and may in its scope be broader than usual (for example, the choice of the optimizer is not usually denoted as a hyperparameter).\relax }}{37}{table.caption.31}\protected@file@percent }
\newlabel{tab:impact_hyperparameters}{{3.1}{37}{Impact of hyperparameters on the performance of PINNs. Note that the definition of hyperparameter for this table can be reduced to ``anything which is pre-determined by the user'' and may in its scope be broader than usual (for example, the choice of the optimizer is not usually denoted as a hyperparameter).\relax }{table.caption.31}{}}
\@writefile{toc}{\contentsline {paragraph}{Transfer learning}{37}{paragraph*.32}\protected@file@percent }
\citation{krishnapriyanCharacterizingPossibleFailure2021}
\citation{krishnapriyanCharacterizingPossibleFailure2021}
\citation{krishnapriyanCharacterizingPossibleFailure2021}
\@writefile{toc}{\contentsline {paragraph}{Where PINNs fail to train}{38}{paragraph*.33}\protected@file@percent }
\newlabel{eq:convection}{{3.13}{38}{Where PINNs fail to train}{equation.3.3.13}{}}
\@writefile{toc}{\contentsline {paragraph}{Sequence-to-sequence learning}{38}{paragraph*.34}\protected@file@percent }
\citation{raissiPhysicsInformedDeep2017a,raissiPhysicsInformedDeep2017}
\citation{raissiPhysicsinformedNeuralNetworks2019}
\citation{lagarisArtificialNeuralNetworks1998}
\@writefile{lof}{\contentsline {figure}{\numberline {3.5}{\ignorespaces Illustration of the sequence-to-sequence learning approach. Left: collocation points (red: initial condition, yellow: boundary) used for finding a global solution. Right: only a fifth of the temporal region is used for the first PINN. Subsequent PINNs take as initial condition the boundary solution of its predecessor.\relax }}{39}{figure.caption.35}\protected@file@percent }
\newlabel{fig:seq2seq}{{3.5}{39}{Illustration of the sequence-to-sequence learning approach. Left: collocation points (red: initial condition, yellow: boundary) used for finding a global solution. Right: only a fifth of the temporal region is used for the first PINN. Subsequent PINNs take as initial condition the boundary solution of its predecessor.\relax }{figure.caption.35}{}}
\@writefile{toc}{\contentsline {section}{\numberline {3.4}Summary}{39}{section.3.4}\protected@file@percent }
\@writefile{toc}{\contentsline {chapter}{\numberline {4}Solving the paraxial Helmholtz equation}{41}{chapter.4}\protected@file@percent }
\@writefile{lof}{\addvspace {10\p@ }}
\@writefile{lot}{\addvspace {10\p@ }}
\newlabel{ch:pinngaussianwave}{{4}{41}{Solving the paraxial Helmholtz equation}{chapter.4}{}}
\@writefile{toc}{\contentsline {section}{\numberline {4.1}Setting up the two-dimensional problem}{41}{section.4.1}\protected@file@percent }
\@writefile{toc}{\contentsline {paragraph}{Dimensionality reduction of the paraxial Helmholtz equation}{42}{paragraph*.36}\protected@file@percent }
\newlabel{eq:paraxialhelmholtz_vac_2d_ch4}{{4.1}{42}{Dimensionality reduction of the paraxial Helmholtz equation}{equation.4.1.1}{}}
\newlabel{eq:gaussianwaves_2D}{{4.2}{42}{Dimensionality reduction of the paraxial Helmholtz equation}{equation.4.1.2}{}}
\@writefile{toc}{\contentsline {paragraph}{Real and imaginary components}{42}{paragraph*.37}\protected@file@percent }
\@writefile{toc}{\contentsline {paragraph}{Boundary conditions}{42}{paragraph*.38}\protected@file@percent }
\@writefile{toc}{\contentsline {paragraph}{Normalization}{43}{paragraph*.39}\protected@file@percent }
\newlabel{eq:gaussnorm1}{{4.10}{43}{Normalization}{equation.4.1.10}{}}
\newlabel{eq:gaussnorm2pde}{{4.11}{43}{Normalization}{equation.4.1.11}{}}
\newlabel{eq:gaussnorm2}{{4.12}{44}{Normalization}{equation.4.1.12}{}}
\@writefile{lot}{\contentsline {table}{\numberline {4.1}{\ignorespaces Listing of the hyperparameters and chosen settings which all PINNs presented in this Chapter have in common.\relax }}{44}{table.caption.40}\protected@file@percent }
\newlabel{tab:hyperparameter_gaussian}{{4.1}{44}{Listing of the hyperparameters and chosen settings which all PINNs presented in this Chapter have in common.\relax }{table.caption.40}{}}
\citation{luDeepXDEDeepLearning2021}
\@writefile{toc}{\contentsline {paragraph}{Hyperparameters and other settings}{45}{paragraph*.41}\protected@file@percent }
\@writefile{toc}{\contentsline {section}{\numberline {4.2}Training results}{45}{section.4.2}\protected@file@percent }
\@writefile{toc}{\contentsline {subsection}{\numberline {4.2.1}Dirichlet boundary conditions}{45}{subsection.4.2.1}\protected@file@percent }
\newlabel{subsec:dirichletbound}{{4.2.1}{45}{Dirichlet boundary conditions}{subsection.4.2.1}{}}
\@writefile{toc}{\contentsline {paragraph}{First normalization}{45}{paragraph*.42}\protected@file@percent }
\citation{raissiPhysicsinformedNeuralNetworks2019}
\@writefile{lof}{\contentsline {figure}{\numberline {4.1}{\ignorespaces Comparison of the model predictions (index $\mathrm  {pred}$, \textit  {left column}) with the exact analytical solution (index $\mathrm  {ex}$, \textit  {middle column}) and the errors $\Delta \beta = \left | \beta _\mathrm  {pred} - \beta _\mathrm  {ex}\right |$, $\beta \in \{u, v, |A|^2\}$ (\textit  {right column}) for Dirichlet boundary conditions. The first row shows the results for $u(x,z)$, the second row for $v(x,z)$ and the third row for the intensity $|A(x,z)|^2$, where $A(x,z) = u(x,z) + \mathbbm  {i}v(x,z)$ is the complex amplitude Eq.\nobreakspace  {}\textup  {\hbox {\mathsurround \z@ \normalfont  (\ignorespaces \ref  {eq:gaussianwaves_2D}\unskip \@@italiccorr )}}. The ratio of beam width to boundary extent is $1/6$.\relax }}{46}{figure.caption.43}\protected@file@percent }
\newlabel{fig:gaussiandirichletsmall}{{4.1}{46}{Comparison of the model predictions (index $\mathrm {pred}$, \textit {left column}) with the exact analytical solution (index $\mathrm {ex}$, \textit {middle column}) and the errors $\Delta \beta = \left | \beta _\mathrm {pred} - \beta _\mathrm {ex}\right |$, $\beta \in \{u, v, |A|^2\}$ (\textit {right column}) for Dirichlet boundary conditions. The first row shows the results for $u(x,z)$, the second row for $v(x,z)$ and the third row for the intensity $|A(x,z)|^2$, where $A(x,z) = u(x,z) + \i v(x,z)$ is the complex amplitude \eqref {eq:gaussianwaves_2D}. The ratio of beam width to boundary extent is $1/6$.\relax }{figure.caption.43}{}}
\citation{wangUnderstandingMitigatingGradient2021,markidisOldNewCan2021}
\citation{jagtapLocallyAdaptiveActivation2020}
\citation{wangWhenWhyPINNs2022}
\@writefile{lof}{\contentsline {figure}{\numberline {4.2}{\ignorespaces Exact and predicted transverse beam profiles for $u(\xi , \zeta = 2)$ and $v(\xi , \zeta = 2)$, taken from Fig.\nobreakspace  {}\ref  {fig:gaussiandirichletsmall}, where $\zeta = 2$ is equivalent to $z = 2z_0$.\relax }}{47}{figure.caption.44}\protected@file@percent }
\newlabel{fig:gaussiandirichletsmall_slice}{{4.2}{47}{Exact and predicted transverse beam profiles for $u(\xi , \zeta = 2)$ and $v(\xi , \zeta = 2)$, taken from Fig.~\ref {fig:gaussiandirichletsmall}, where $\zeta = 2$ is equivalent to $z = 2z_0$.\relax }{figure.caption.44}{}}
\@writefile{toc}{\contentsline {paragraph}{Beam width}{47}{paragraph*.45}\protected@file@percent }
\citation{markidisOldNewCan2021}
\@writefile{lof}{\contentsline {figure}{\numberline {4.3}{\ignorespaces Exact beam width $w(z)$, Eq.\nobreakspace  {}\textup  {\hbox {\mathsurround \z@ \normalfont  (\ignorespaces \ref  {eq:beamwidth}\unskip \@@italiccorr )}} compared to predicted beam width.\relax }}{48}{figure.caption.46}\protected@file@percent }
\newlabel{fig:gaussiandirichletsmall_beamwidth}{{4.3}{48}{Exact beam width $w(z)$, \eqref {eq:beamwidth} compared to predicted beam width.\relax }{figure.caption.46}{}}
\@writefile{toc}{\contentsline {paragraph}{Notes on the training process}{48}{paragraph*.47}\protected@file@percent }
\@writefile{lof}{\contentsline {figure}{\numberline {4.4}{\ignorespaces Training process of the Gaussian beam intensity $|A(x,z)|^2$ for the PINN presented in Fig.\nobreakspace  {}\ref  {fig:gaussiandirichletsmall} at four different iterations ($500$, $1500$, $8000$ and $\num {11000}$) compared to the exact solution (panel {e)}). The panels correspond to the training dynamics listed above: prediction of collimation, slow broadening and then further broadening due to appearance of fringes in $u$ and $v$. A logarithmic colormap is chosen to emphasize the changes between iterations.\relax }}{48}{figure.caption.48}\protected@file@percent }
\newlabel{fig:gaussiandirichletsmall_progress}{{4.4}{48}{Training process of the Gaussian beam intensity $|A(x,z)|^2$ for the PINN presented in Fig.~\ref {fig:gaussiandirichletsmall} at four different iterations ($500$, $1500$, $8000$ and $\num {11000}$) compared to the exact solution (panel {e)}). The panels correspond to the training dynamics listed above: prediction of collimation, slow broadening and then further broadening due to appearance of fringes in $u$ and $v$. A logarithmic colormap is chosen to emphasize the changes between iterations.\relax }{figure.caption.48}{}}
\@writefile{toc}{\contentsline {paragraph}{Reflections at the boundary}{49}{paragraph*.49}\protected@file@percent }
\@writefile{lof}{\contentsline {figure}{\numberline {4.5}{\ignorespaces Model predictions for a PINN trained on Dirichlet boundary conditions where $\xi '_b = \pm 0.5$ was chosen such that $|A(\xi '_b,\zeta )|^2$ is not negligibly small. The second normalization is employed with $\xi ' = x / 10w_0$ and $\zeta ' = z / 20z_0$. The ratio of beam width to boundary extent is $1/5$.\relax }}{49}{figure.caption.50}\protected@file@percent }
\newlabel{fig:gaussianbackreflection}{{4.5}{49}{Model predictions for a PINN trained on Dirichlet boundary conditions where $\xi '_b = \pm 0.5$ was chosen such that $|A(\xi '_b,\zeta )|^2$ is not negligibly small. The second normalization is employed with $\xi ' = x / 10w_0$ and $\zeta ' = z / 20z_0$. The ratio of beam width to boundary extent is $1/5$.\relax }{figure.caption.50}{}}
\@writefile{toc}{\contentsline {subsection}{\numberline {4.2.2}Periodic boundary conditions}{50}{subsection.4.2.2}\protected@file@percent }
\newlabel{subsec:periodicbound}{{4.2.2}{50}{Periodic boundary conditions}{subsection.4.2.2}{}}
\@writefile{lof}{\contentsline {figure}{\numberline {4.6}{\ignorespaces Model predictions for a PINN trained on periodic boundary conditions where $\xi _b = \pm 6$ was chosen such that $|A(\xi , \zeta )|^2 \rightarrow 0, \ \xi \rightarrow \xi _b$. The first normalization is employed with $\xi = x / w_0$ and $\zeta = z / z_0$.\relax }}{50}{figure.caption.51}\protected@file@percent }
\newlabel{fig:gaussianperiodicsmall}{{4.6}{50}{Model predictions for a PINN trained on periodic boundary conditions where $\xi _b = \pm 6$ was chosen such that $|A(\xi , \zeta )|^2 \rar 0, \ \xi \rar \xi _b$. The first normalization is employed with $\xi = x / w_0$ and $\zeta = z / z_0$.\relax }{figure.caption.51}{}}
\@writefile{lof}{\contentsline {figure}{\numberline {4.7}{\ignorespaces Model predictions for a PINN trained on periodic boundary conditions where $\xi '_b = \pm 0.5$ was chosen such that $|A(\xi '_b,\zeta )|^2 \gg 0$. The second normalization is employed with $\xi ' = x / 10w_0$ and $\zeta ' = z / 20z_0$. The ratio of beam width to boundary extent is $1/5$.\relax }}{50}{figure.caption.52}\protected@file@percent }
\newlabel{fig:gaussianinterferenceperiodic}{{4.7}{50}{Model predictions for a PINN trained on periodic boundary conditions where $\xi '_b = \pm 0.5$ was chosen such that $|A(\xi '_b,\zeta )|^2 \gg 0$. The second normalization is employed with $\xi ' = x / 10w_0$ and $\zeta ' = z / 20z_0$. The ratio of beam width to boundary extent is $1/5$.\relax }{figure.caption.52}{}}
\@writefile{toc}{\contentsline {paragraph}{Interference at the boundaries}{51}{paragraph*.53}\protected@file@percent }
\@writefile{toc}{\contentsline {subsection}{\numberline {4.2.3}Oddities: no boundary condition required}{51}{subsection.4.2.3}\protected@file@percent }
\newlabel{subsec:nobound}{{4.2.3}{51}{Oddities: no boundary condition required}{subsection.4.2.3}{}}
\@writefile{lof}{\contentsline {figure}{\numberline {4.8}{\ignorespaces Model predictions (index $\mathrm  {pred}$, \textit  {left column}) for a PINN trained without boundary conditions with the second normalization being employed. Despite the absence of boundary conditions, convergence to Eq.\nobreakspace  {}\textup  {\hbox {\mathsurround \z@ \normalfont  (\ignorespaces \ref  {eq:gaussianwaves_2D}\unskip \@@italiccorr )}} (index $\mathrm  {ex}$, \textit  {middle column}) was achieved. It is with respect to this exact solution that the errors, $\Delta \beta = \left | \beta _\mathrm  {pred} - \beta _\mathrm  {ex}\right |$, $\beta \in \{u, v, |A|^2\}$, are shown (\textit  {right column}) and the relative $\L _2$ errors are calculated.\relax }}{51}{figure.caption.54}\protected@file@percent }
\newlabel{fig:gaussianoddity}{{4.8}{51}{Model predictions (index $\mathrm {pred}$, \textit {left column}) for a PINN trained without boundary conditions with the second normalization being employed. Despite the absence of boundary conditions, convergence to \eqref {eq:gaussianwaves_2D} (index $\mathrm {ex}$, \textit {middle column}) was achieved. It is with respect to this exact solution that the errors, $\Delta \beta = \left | \beta _\mathrm {pred} - \beta _\mathrm {ex}\right |$, $\beta \in \{u, v, |A|^2\}$, are shown (\textit {right column}) and the relative $\L _2$ errors are calculated.\relax }{figure.caption.54}{}}
\citation{wangUnderstandingMitigatingGradient2021,markidisOldNewCan2021}
\citation{wangUnderstandingMitigatingGradient2021}
\@writefile{toc}{\contentsline {paragraph}{Why does the PINN converge?}{52}{paragraph*.55}\protected@file@percent }
\@writefile{toc}{\contentsline {paragraph}{Impact of number of collocation points}{53}{paragraph*.56}\protected@file@percent }
\@writefile{lof}{\contentsline {figure}{\numberline {4.9}{\ignorespaces Comparison of cost (blue, right axis) and relative $\L _2$ errors for $u$ (red), $v$ (green) and $|A|^2$ (purple, all left axis) for $m_f = \num {10000}$ (solid) and $m_f = \num {15000}$ (dashed). Notably, the $\L _2$ error decreases for higher $m_f$ while the cost is approximately equal. The sudden decrease in the cost at $\num {12000}$ iterations is fully attributable to the switch to the L-BFGS optimizer at this point in training.\relax }}{53}{figure.caption.57}\protected@file@percent }
\newlabel{fig:gaussiannobound_nfcomp}{{4.9}{53}{Comparison of cost (blue, right axis) and relative $\L _2$ errors for $u$ (red), $v$ (green) and $|A|^2$ (purple, all left axis) for $m_f = \num {10000}$ (solid) and $m_f = \num {15000}$ (dashed). Notably, the $\L _2$ error decreases for higher $m_f$ while the cost is approximately equal. The sudden decrease in the cost at $\num {12000}$ iterations is fully attributable to the switch to the L-BFGS optimizer at this point in training.\relax }{figure.caption.57}{}}
\@writefile{lof}{\contentsline {figure}{\numberline {4.10}{\ignorespaces Comparison of model predictions, exact analytical solution and the error with definitions analogous to Fig.\nobreakspace  {}\ref  {fig:gaussianperiodicsmall}. The model used is the same as in Fig.\nobreakspace  {}\ref  {fig:gaussianoddity}, however, $\xi ' \in [-2,2]$ and $\zeta ' \in [0,2]$ was now chosen, thus increasing the area analyzed by a factor of $4$. The region where collocation points were placed (\textit  {Training region}) is encased by the dashed, gray line. \relax }}{54}{figure.caption.58}\protected@file@percent }
\newlabel{fig:gaussiannobound_extrapol}{{4.10}{54}{Comparison of model predictions, exact analytical solution and the error with definitions analogous to Fig.~\ref {fig:gaussianperiodicsmall}. The model used is the same as in Fig.~\ref {fig:gaussianoddity}, however, $\xi ' \in [-2,2]$ and $\zeta ' \in [0,2]$ was now chosen, thus increasing the area analyzed by a factor of $4$. The region where collocation points were placed (\textit {Training region}) is encased by the dashed, gray line. \relax }{figure.caption.58}{}}
\@writefile{toc}{\contentsline {paragraph}{Extrapolation capabilities}{54}{paragraph*.59}\protected@file@percent }
\@writefile{toc}{\contentsline {section}{\numberline {4.3}Summary and discussion}{55}{section.4.3}\protected@file@percent }
\citation{raissiPhysicsinformedNeuralNetworks2019}
\citation{andreoliMaximumRefractiveIndex2021}
\@writefile{toc}{\contentsline {chapter}{\numberline {5}Solving the parabolic waveguide}{57}{chapter.5}\protected@file@percent }
\@writefile{lof}{\addvspace {10\p@ }}
\@writefile{lot}{\addvspace {10\p@ }}
\newlabel{ch:pinnwaveguide}{{5}{57}{Solving the parabolic waveguide}{chapter.5}{}}
\@writefile{toc}{\contentsline {section}{\numberline {5.1}Preliminaries -- Setting up the problem}{57}{section.5.1}\protected@file@percent }
\@writefile{toc}{\contentsline {paragraph}{Real and imaginary components}{57}{paragraph*.60}\protected@file@percent }
\newlabel{eq:paraxialwaveeq_1d_ch4}{{5.1}{57}{Real and imaginary components}{equation.5.1.1}{}}
\newlabel{eq:solutionwaveguide_ch4}{{5.6}{58}{Real and imaginary components}{equation.5.1.6}{}}
\@writefile{toc}{\contentsline {paragraph}{Boundary condition}{58}{paragraph*.61}\protected@file@percent }
\@writefile{toc}{\contentsline {paragraph}{Initial conditions}{58}{paragraph*.62}\protected@file@percent }
\@writefile{lof}{\contentsline {figure}{\numberline {5.1}{\ignorespaces First five stationary solutions $g_n(x)$ of Eq.\nobreakspace  {}\textup  {\hbox {\mathsurround \z@ \normalfont  (\ignorespaces \ref  {eq:paraxialwaveeq_1d_ch4}\unskip \@@italiccorr )}} in the presence of a parabolic index profile, $\Delta n \propto x^2$.\relax }}{59}{figure.caption.63}\protected@file@percent }
\newlabel{fig:waveguide_pot}{{5.1}{59}{First five stationary solutions $g_n(x)$ of \eqref {eq:paraxialwaveeq_1d_ch4} in the presence of a parabolic index profile, $\Delta n \propto x^2$.\relax }{figure.caption.63}{}}
\newlabel{eq:coefficients}{{5.8}{59}{Initial conditions}{equation.5.1.8}{}}
\newlabel{eq:normalizationcoefficients}{{5.9}{60}{Initial conditions}{equation.5.1.9}{}}
\@writefile{lof}{\contentsline {figure}{\numberline {5.2}{\ignorespaces Initial solutions for three different coefficient vectors $\mathbf  {c}^{(1)}$, $\mathbf  {c}^{(2)}$ and $\mathbf  {c}^{(3)}$, as given by Eq.\nobreakspace  {}\textup  {\hbox {\mathsurround \z@ \normalfont  (\ignorespaces \ref  {eq:coefficients}\unskip \@@italiccorr )}} and normalized as in Eq.\nobreakspace  {}\textup  {\hbox {\mathsurround \z@ \normalfont  (\ignorespaces \ref  {eq:normalizationcoefficients}\unskip \@@italiccorr )}}. The $x$-axis is normalized by $2\lambda $.\relax }}{60}{figure.caption.64}\protected@file@percent }
\newlabel{fig:waveguide_init}{{5.2}{60}{Initial solutions for three different coefficient vectors $\c ^{(1)}$, $\c ^{(2)}$ and $\c ^{(3)}$, as given by \eqref {eq:coefficients} and normalized as in \eqref {eq:normalizationcoefficients}. The $x$-axis is normalized by $2\lambda $.\relax }{figure.caption.64}{}}
\@writefile{toc}{\contentsline {paragraph}{Normalization}{60}{paragraph*.65}\protected@file@percent }
\newlabel{eq:waveguideeq_norm}{{5.10}{60}{Normalization}{equation.5.1.10}{}}
\newlabel{eq:waveguidesol_norm}{{5.13}{60}{Normalization}{equation.5.1.13}{}}
\@writefile{toc}{\contentsline {paragraph}{Hyperparameters and other settings}{61}{paragraph*.66}\protected@file@percent }
\@writefile{lot}{\contentsline {table}{\numberline {5.1}{\ignorespaces Listing of the hyperparameters and chosen settings which all PINNs presented in this Chapter have in common.\relax }}{61}{table.caption.67}\protected@file@percent }
\newlabel{tab:hyperparameter_waveguide}{{5.1}{61}{Listing of the hyperparameters and chosen settings which all PINNs presented in this Chapter have in common.\relax }{table.caption.67}{}}
\@writefile{toc}{\contentsline {section}{\numberline {5.2}Training results}{61}{section.5.2}\protected@file@percent }
\@writefile{toc}{\contentsline {subsection}{\numberline {5.2.1}Guiding a beam with Gaussian profile}{61}{subsection.5.2.1}\protected@file@percent }
\newlabel{subsec:waveguidegaussian}{{5.2.1}{61}{Guiding a beam with Gaussian profile}{subsection.5.2.1}{}}
\citation{raissiPhysicsinformedNeuralNetworks2019,wangUnderstandingMitigatingGradient2021,moseleySolvingWaveEquation2020}
\@writefile{lof}{\contentsline {figure}{\numberline {5.3}{\ignorespaces Comparison of the model predictions (index $\mathrm  {pred}$, \textit  {left column}) for a Gaussian initial distribution, $\mathbf  {c}^{(1)}$, with the exact analytical solution (index $\mathrm  {ex}$, \textit  {middle column}) and the errors $\Delta \beta = \left | \beta _\mathrm  {pred} - \beta _\mathrm  {ex}\right |$, $\beta \in \{u, v, |A|^2\}$ (\textit  {right column}). The first row shows the results for $u(x,z)$, the second row for $v(x,z)$ and the third row for the intensity $|A(x,z)|^2$, where $A(x,z) = u(x,z) + \mathbbm  {i}v(x,z)$ is the complex amplitude Eq.\nobreakspace  {}\textup  {\hbox {\mathsurround \z@ \normalfont  (\ignorespaces \ref  {eq:paraxialwaveeq_1d_ch4}\unskip \@@italiccorr )}}. The $x$-axis is normalized by $2\lambda $ and the $z$-axis by $5\lambda $.\relax }}{62}{figure.caption.68}\protected@file@percent }
\newlabel{fig:waveguide_gaussian}{{5.3}{62}{Comparison of the model predictions (index $\mathrm {pred}$, \textit {left column}) for a Gaussian initial distribution, $\c ^{(1)}$, with the exact analytical solution (index $\mathrm {ex}$, \textit {middle column}) and the errors $\Delta \beta = \left | \beta _\mathrm {pred} - \beta _\mathrm {ex}\right |$, $\beta \in \{u, v, |A|^2\}$ (\textit {right column}). The first row shows the results for $u(x,z)$, the second row for $v(x,z)$ and the third row for the intensity $|A(x,z)|^2$, where $A(x,z) = u(x,z) + \i v(x,z)$ is the complex amplitude \eqref {eq:paraxialwaveeq_1d_ch4}. The $x$-axis is normalized by $2\lambda $ and the $z$-axis by $5\lambda $.\relax }{figure.caption.68}{}}
\@writefile{toc}{\contentsline {subsection}{\numberline {5.2.2}Guiding a superposition of two modes, $n=0$ and $n=1$}{63}{subsection.5.2.2}\protected@file@percent }
\newlabel{subsec:waveguidesimple}{{5.2.2}{63}{Guiding a superposition of two modes, $n=0$ and $n=1$}{subsection.5.2.2}{}}
\@writefile{lof}{\contentsline {figure}{\numberline {5.4}{\ignorespaces Comparison of the model predictions for an initial distribution determined by the coefficients $\mathbf  {c}^{(2)}$, Eq.\nobreakspace  {}\textup  {\hbox {\mathsurround \z@ \normalfont  (\ignorespaces \ref  {eq:coefficients}\unskip \@@italiccorr )}}, with the exact analytical solution. The column and row assignment as well as error definition and normalization is identical to Fig.\nobreakspace  {}\ref  {fig:waveguide_gaussian}.\relax }}{63}{figure.caption.69}\protected@file@percent }
\newlabel{fig:waveguide_simplesuperpos}{{5.4}{63}{Comparison of the model predictions for an initial distribution determined by the coefficients $\c ^{(2)}$, \eqref {eq:coefficients}, with the exact analytical solution. The column and row assignment as well as error definition and normalization is identical to Fig.~\ref {fig:waveguide_gaussian}.\relax }{figure.caption.69}{}}
\@writefile{toc}{\contentsline {paragraph}{The training process}{64}{paragraph*.70}\protected@file@percent }
\@writefile{lof}{\contentsline {figure}{\numberline {5.5}{\ignorespaces Training process of the beam intensity $|A(x,z)|^2$ for the PINN presented in Fig.\nobreakspace  {}\ref  {fig:waveguide_simplesuperpos} at four different iterations ($3000$, $8000$, $\num {12000}$ and $\num {16000}$) compared to the exact solution (panel {e)}).\relax }}{64}{figure.caption.71}\protected@file@percent }
\newlabel{fig:waveguide_simplesuperpos_progress}{{5.5}{64}{Training process of the beam intensity $|A(x,z)|^2$ for the PINN presented in Fig.~\ref {fig:waveguide_simplesuperpos} at four different iterations ($3000$, $8000$, $\num {12000}$ and $\num {16000}$) compared to the exact solution (panel {e)}).\relax }{figure.caption.71}{}}
\citation{xuFrequencyPrincipleFourier2020}
\citation{markidisOldNewCan2021}
\@writefile{toc}{\contentsline {subsection}{\numberline {5.2.3}Guiding a superposition of four modes, $n=1$ to $n=4$}{65}{subsection.5.2.3}\protected@file@percent }
\newlabel{subsec:waveguidecomplicated}{{5.2.3}{65}{Guiding a superposition of four modes, $n=1$ to $n=4$}{subsection.5.2.3}{}}
\@writefile{toc}{\contentsline {paragraph}{On the error of PINNs}{65}{paragraph*.72}\protected@file@percent }
\@writefile{lof}{\contentsline {figure}{\numberline {5.6}{\ignorespaces Comparison of the model predictions for an initial distribution determined by the coefficient vector $\mathbf  {c}^{(3)}$, Eq.\nobreakspace  {}\textup  {\hbox {\mathsurround \z@ \normalfont  (\ignorespaces \ref  {eq:coefficients}\unskip \@@italiccorr )}}, with the exact analytical solution. The column and row assignment as well as error definition and normalization are identical to Fig.\nobreakspace  {}\ref  {fig:waveguide_gaussian}. At $\zeta = \frac  {z}{5\lambda } = 0.64$, the vertical gray dashed line in the right column indicates where a slice will be further analyzed in Fig.\nobreakspace  {}\ref  {fig:waveguide_complsuperpos_slice}.\relax }}{66}{figure.caption.73}\protected@file@percent }
\newlabel{fig:waveguide_complsuperpos}{{5.6}{66}{Comparison of the model predictions for an initial distribution determined by the coefficient vector $\c ^{(3)}$, \eqref {eq:coefficients}, with the exact analytical solution. The column and row assignment as well as error definition and normalization are identical to Fig.~\ref {fig:waveguide_gaussian}. At $\zeta = \frac {z}{5\lambda } = 0.64$, the vertical gray dashed line in the right column indicates where a slice will be further analyzed in Fig.~\ref {fig:waveguide_complsuperpos_slice}.\relax }{figure.caption.73}{}}
\citation{xuFrequencyPrincipleFourier2020}
\@writefile{lof}{\contentsline {figure}{\numberline {5.7}{\ignorespaces Solution of $u$, $v$ and $|A|^2$ at $\frac  {z}{5\lambda } = 0.64$. This $z$ value was chosen since, as seen in Fig.\nobreakspace  {}\ref  {fig:waveguide_complsuperpos}, it corresponds to the highest error in the intensity.\relax }}{67}{figure.caption.74}\protected@file@percent }
\newlabel{fig:waveguide_complsuperpos_slice}{{5.7}{67}{Solution of $u$, $v$ and $|A|^2$ at $\frac {z}{5\lambda } = 0.64$. This $z$ value was chosen since, as seen in Fig.~\ref {fig:waveguide_complsuperpos}, it corresponds to the highest error in the intensity.\relax }{figure.caption.74}{}}
\@writefile{toc}{\contentsline {section}{\numberline {5.3}Summary and discussion}{67}{section.5.3}\protected@file@percent }
\citation{xuFrequencyPrincipleFourier2020}
\citation{markidisOldNewCan2021}
\citation{wangUnderstandingMitigatingGradient2021}
\citation{raissiPhysicsInformedDeep2017a}
\citation{raissiPhysicsInformedDeep2017a}
\citation{hornikMultilayerFeedforwardNetworks1989}
\@writefile{toc}{\contentsline {chapter}{Conclusion and outlook}{69}{chapter*.75}\protected@file@percent }
\citation{luDeepXDEDeepLearning2021}
\citation{markidisOldNewCan2021}
\citation{markidisOldNewCan2021}
\citation{raissiPhysicsinformedNeuralNetworks2019}
\citation{salehFundamentalsPhotonics2007}
\@writefile{toc}{\contentsline {chapter}{Appendix}{73}{chapter*.76}\protected@file@percent }
\newlabel{eq:waveinh_der1}{{5.20}{73}{}{equation.5.3.20}{}}
\newlabel{eq:scalarwaveeq_inh}{{5.25}{74}{}{equation.5.3.25}{}}
\bibstyle{naturemag}
\bibdata{PINNs}
\bibcite{rileyMathematicalMethodsPhysics2006}{{1}{}{{}}{{}}}
\bibcite{bartelmannTheoretischePhysikMechanik2018}{{2}{}{{}}{{}}}
\bibcite{sakuraiModernQuantumMechanics2020}{{3}{}{{}}{{}}}
\bibcite{schererComputationalPhysicsSimulation2010}{{4}{}{{}}{{}}}
\bibcite{thijssenComputationalPhysics2007}{{5}{}{{}}{{}}}
\bibcite{skuseThirdPillar2019}{{6}{}{{}}{{}}}
\bibcite{thomasNumericalPartialDifferential1995}{{7}{}{{}}{{}}}
\bibcite{batheFiniteElementMethod2008}{{8}{}{{}}{{}}}
\bibcite{sircaComputationalMethodsPhysics2018}{{9}{}{{}}{{}}}
\bibcite{bellmanDynamicProgramming1957}{{10}{}{{}}{{}}}
\bibcite{courantPartialDifferenceEquations1967}{{11}{}{{}}{{}}}
\bibcite{raissiPhysicsInformedDeep2017a}{{12}{}{{}}{{}}}
\bibcite{raissiPhysicsInformedDeep2017}{{13}{}{{}}{{}}}
\bibcite{raissiPhysicsinformedNeuralNetworks2019}{{14}{}{{}}{{}}}
\bibcite{karniadakisPhysicsinformedMachineLearning2021}{{15}{}{{}}{{}}}
\@writefile{toc}{\contentsline {chapter}{References}{75}{equation.5.3.27}\protected@file@percent }
\bibcite{goodfellowDeepLearning2016}{{16}{}{{}}{{}}}
\bibcite{jumperHighlyAccurateProtein2021}{{17}{}{{}}{{}}}
\bibcite{kirkpatrickPushingFrontiersDensity2021}{{18}{}{{}}{{}}}
\bibcite{chenRiseDeepLearning2018}{{19}{}{{}}{{}}}
\bibcite{razzakDeepLearningMedical2018}{{20}{}{{}}{{}}}
\bibcite{wangWhenWhyPINNs2022}{{21}{}{{}}{{}}}
\bibcite{markidisOldNewCan2021}{{22}{}{{}}{{}}}
\bibcite{wangUnderstandingMitigatingGradient2021}{{23}{}{{}}{{}}}
\bibcite{krishnapriyanCharacterizingPossibleFailure2021}{{24}{}{{}}{{}}}
\bibcite{luDeepXDEDeepLearning2021}{{25}{}{{}}{{}}}
\bibcite{haghighatSciANNKerasTensorFlow2021}{{26}{}{{}}{{}}}
\bibcite{chenPhysicsinformedNeuralNetworks2020}{{27}{}{{}}{{}}}
\bibcite{huDeepLearningFramework2020}{{28}{}{{}}{{}}}
\bibcite{limMaxwellNetPhysicsdrivenDeep2022}{{29}{}{{}}{{}}}
\bibcite{eichlerLaserBauformenStrahlfuehrung2006}{{30}{}{{}}{{}}}
\bibcite{andreoliMaximumRefractiveIndex2021}{{31}{}{{}}{{}}}
\bibcite{hornikMultilayerFeedforwardNetworks1989}{{32}{}{{}}{{}}}
\bibcite{maxwellVIIIDynamicalTheory1865}{{33}{}{{}}{{}}}
\bibcite{huntOliverHeavisideFirstrate2012}{{34}{}{{}}{{}}}
\bibcite{griffithsIntroductionElectrodynamics2017}{{35}{}{{}}{{}}}
\bibcite{salehFundamentalsPhotonics2007}{{36}{}{{}}{{}}}
\bibcite{wegenerExtremeNonlinearOptics2010}{{37}{}{{}}{{}}}
\bibcite{griffithsIntroductionQuantumMechanics2004}{{38}{}{{}}{{}}}
\bibcite{abadiTensorFlowSystemLargescale2016}{{39}{}{{}}{{}}}
\bibcite{cuomoScientificMachineLearning2022}{{40}{}{{}}{{}}}
\bibcite{guiReviewGenerativeAdversarial2021}{{41}{}{{}}{{}}}
\bibcite{disipioGenerativeAdversarialNetworkApproach2019}{{42}{}{{}}{{}}}
\bibcite{yuReviewRecurrentNeural2019}{{43}{}{{}}{{}}}
\bibcite{miljkovicBriefReviewSelforganizing2017}{{44}{}{{}}{{}}}
\bibcite{ghosh-dastidarSpikingNeuralNetworks2009}{{45}{}{{}}{{}}}
\bibcite{zhangOverviewRestrictedBoltzmann2018}{{46}{}{{}}{{}}}
\bibcite{bernazzaniPredictingPhysicalChemical2006}{{47}{}{{}}{{}}}
\bibcite{melkoRestrictedBoltzmannMachines2019}{{48}{}{{}}{{}}}
\bibcite{chengDeepLearningMethod2021}{{49}{}{{}}{{}}}
\bibcite{reedNeuralSmithingSupervised1999}{{50}{}{{}}{{}}}
\bibcite{kollmannsbergerPhysicsInformedNeuralNetworks2021}{{51}{}{{}}{{}}}
\bibcite{boydConvexOptimization2004}{{52}{}{{}}{{}}}
\bibcite{rockafellarConvexAnalysis1997}{{53}{}{{}}{{}}}
\bibcite{goodfellowQualitativelyCharacterizingNeural2015}{{54}{}{{}}{{}}}
\bibcite{dauphinIdentifyingAttackingSaddle2014}{{55}{}{{}}{{}}}
\bibcite{choromanskaLossSurfacesMultilayer2015}{{56}{}{{}}{{}}}
\bibcite{goriProblemLocalMinima1992}{{57}{}{{}}{{}}}
\bibcite{baydinAutomaticDifferentiationMachine2018a}{{58}{}{{}}{{}}}
\bibcite{ruderOverviewGradientDescent2017}{{59}{}{{}}{{}}}
\bibcite{zeilerADADELTAAdaptiveLearning2012}{{60}{}{{}}{{}}}
\bibcite{kingmaAdamMethodStochastic2015}{{61}{}{{}}{{}}}
\bibcite{liuLimitedMemoryBFGS1989}{{62}{}{{}}{{}}}
\bibcite{zhuAlgorithm778LBFGSB1997}{{63}{}{{}}{{}}}
\bibcite{gemanNeuralNetworksBias1992}{{64}{}{{}}{{}}}
\bibcite{wilsonGeneralInefficiencyBatch2003}{{65}{}{{}}{{}}}
\bibcite{glorotUnderstandingDifficultyTraining2010}{{66}{}{{}}{{}}}
\bibcite{leeNeuralAlgorithmSolving1990}{{67}{}{{}}{{}}}
\bibcite{lagarisArtificialNeuralNetworks1998}{{68}{}{{}}{{}}}
\bibcite{bochevLeastSquaresFiniteElement2009}{{69}{}{{}}{{}}}
\bibcite{nabianDeepLearningSolution2019}{{70}{}{{}}{{}}}
\bibcite{blechschmidtThreeWaysSolve2021}{{71}{}{{}}{{}}}
\bibcite{sunSurrogateModelingFluid2020}{{72}{}{{}}{{}}}
\bibcite{shinConvergencePhysicsInformed2020}{{73}{}{{}}{{}}}
\bibcite{zhuangComprehensiveSurveyTransfer2021}{{74}{}{{}}{{}}}
\bibcite{wangSurveyCurriculumLearning2021}{{75}{}{{}}{{}}}
\bibcite{jagtapLocallyAdaptiveActivation2020}{{76}{}{{}}{{}}}
\bibcite{moseleySolvingWaveEquation2020}{{77}{}{{}}{{}}}
\bibcite{xuFrequencyPrincipleFourier2020}{{78}{}{{}}{{}}}
\providecommand\NAT@force@numbers{}\NAT@force@numbers
\@writefile{toc}{\contentsline {chapter}{Acknowledgments}{81}{chapter*.77}\protected@file@percent }
